…
results %>%
  arrange(ks_p, desc(ks_D))
## # A tibble: 156 × 5
##    metric.x     metric.y     spearman_cor  ks_D  ks_p
##    <chr>        <chr>               <dbl> <dbl> <dbl>
##  1 fir_fun_frid fir_fun_tslf        1     1         0
##  2 fir_fun_tslf fir_fun_frid        1     1         0
##  3 for_com_sl   for_com_se          0.735 1         0
##  4 bio_div_sr   bio_com_fgr         0.860 0.998     0
##  5 for_com_se   for_com_sl          0.735 0.998     0
##  6 bio_com_fgr  bio_div_sr          0.860 0.995     0
##  7 co2_stb_stb  for_str_ltd         0.552 0.774     0
##  8 for_str_ltd  co2_stb_stb         0.552 0.707     0
##  9 for_com_drid fir_fun_tslf        0.462 0.699     0
## 10 for_com_drid fir_fun_frid        0.513 0.698     0
## # … with 146 more rows
…
